{"message": {
    "statusCode": 200,
    "resultCode": null,
    "message": null,
    "invoker": null,
    "callback": null
}, "columns": [
    {
        "title": "主键",
        "width": 100,
        "sortable": false,
        "hidden": false,
        "exportable": true,
        "dataIndex": "id",
        "order": 0
    },
    {
        "title": "类型",
        "width": 100,
        "sortable": false,
        "hidden": false,
        "exportable": true,
        "dataIndex": "kind",
        "order": 1
    },
    {
        "title": "名称",
        "width": 100,
        "sortable": false,
        "hidden": false,
        "exportable": true,
        "dataIndex": "name",
        "order": 2
    },
    {
        "title": "编码",
        "width": 100,
        "sortable": false,
        "hidden": false,
        "exportable": true,
        "dataIndex": "code",
        "order": 3
    },
    {
        "title": "标识",
        "width": 100,
        "sortable": false,
        "hidden": false,
        "exportable": true,
        "dataIndex": "symbol",
        "order": 4
    },
    {
        "title": "全路径",
        "width": 100,
        "sortable": false,
        "hidden": false,
        "exportable": true,
        "dataIndex": "path",
        "order": 5
    },
    {
        "title": "地址",
        "width": 100,
        "sortable": false,
        "hidden": false,
        "exportable": true,
        "dataIndex": "url",
        "order": 6
    },
    {
        "title": "叶子",
        "width": 100,
        "sortable": false,
        "hidden": false,
        "exportable": true,
        "dataIndex": "leaf",
        "order": 7
    },
    {
        "title": "层次",
        "width": 100,
        "sortable": false,
        "hidden": false,
        "exportable": true,
        "dataIndex": "level",
        "order": 8
    },
    {
        "title": "位置",
        "width": 100,
        "sortable": false,
        "hidden": false,
        "exportable": true,
        "dataIndex": "order",
        "order": 9
    },
    {
        "title": "roles",
        "width": -1,
        "sortable": false,
        "hidden": false,
        "exportable": true,
        "dataIndex": "roles",
        "order": 26
    },
    {
        "title": "",
        "width": 100,
        "sortable": false,
        "hidden": true,
        "exportable": false,
        "dataIndex": "parent",
        "order": 999
    },
    {
        "title": "",
        "width": 100,
        "sortable": false,
        "hidden": true,
        "exportable": false,
        "dataIndex": "parentId",
        "order": 999
    },
    {
        "title": "组织全称",
        "width": 100,
        "sortable": false,
        "hidden": false,
        "exportable": true,
        "dataIndex": "ouPath",
        "order": 1000
    },
    {
        "title": "创建用户",
        "width": 100,
        "sortable": false,
        "hidden": false,
        "exportable": true,
        "dataIndex": "createUser",
        "order": 1001
    },
    {
        "title": "创建时间",
        "width": 100,
        "sortable": false,
        "hidden": false,
        "exportable": true,
        "dataIndex": "createTime",
        "order": 1002
    },
    {
        "title": "修改用户",
        "width": 100,
        "sortable": false,
        "hidden": false,
        "exportable": true,
        "dataIndex": "modifyUser",
        "order": 1003
    },
    {
        "title": "修改时间",
        "width": 100,
        "sortable": false,
        "hidden": false,
        "exportable": true,
        "dataIndex": "modifyTime",
        "order": 1004
    },
    {
        "title": "备注",
        "width": 100,
        "sortable": false,
        "hidden": false,
        "exportable": true,
        "dataIndex": "remark",
        "order": 1005
    }
], "content": [
    {
        "id": 1,
        "ouPath": null,
        "createUser": null,
        "createTime": "2012-02-27",
        "modifyUser": null,
        "modifyTime": null,
        "remark": "0",
        "parentId": 0,
        "kind": "SYSTEM",
        "name": "基础数据管理子系统",
        "code": null,
        "symbol": "200",
        "path": null,
        "url": null,
        "leaf": false,
        "level": 1,
        "order": 0
    },
    {
        "id": 2,
        "ouPath": null,
        "createUser": null,
        "createTime": "2012-02-27",
        "modifyUser": null,
        "modifyTime": null,
        "remark": "0",
        "parentId": 0,
        "kind": "SYSTEM",
        "name": "宜通世纪运维平台",
        "code": null,
        "symbol": "202",
        "path": null,
        "url": null,
        "leaf": false,
        "level": 1,
        "order": 0
    },
    {
        "id": 3,
        "ouPath": null,
        "createUser": null,
        "createTime": "2012-02-27",
        "modifyUser": null,
        "modifyTime": null,
        "remark": "0",
        "parentId": 0,
        "kind": "SYSTEM",
        "name": "宜通世纪项目管理平台",
        "code": null,
        "symbol": "201",
        "path": null,
        "url": null,
        "leaf": false,
        "level": 1,
        "order": 0
    },
    {
        "id": 4,
        "ouPath": null,
        "createUser": null,
        "createTime": "2012-02-27",
        "modifyUser": null,
        "modifyTime": null,
        "remark": "200",
        "parentId": 1,
        "kind": "MENU",
        "name": "数据字典服务",
        "code": null,
        "symbol": "200005",
        "path": null,
        "url": null,
        "leaf": false,
        "level": 2,
        "order": 0
    },
    {
        "id": 5,
        "ouPath": null,
        "createUser": null,
        "createTime": "2012-02-27",
        "modifyUser": null,
        "modifyTime": null,
        "remark": "200005",
        "parentId": 4,
        "kind": "MENU",
        "name": "查询",
        "code": null,
        "symbol": "20000502",
        "path": null,
        "url": null,
        "leaf": true,
        "level": 3,
        "order": 0
    },
    {
        "id": 6,
        "ouPath": null,
        "createUser": null,
        "createTime": "2012-02-27",
        "modifyUser": null,
        "modifyTime": null,
        "remark": "200005",
        "parentId": 4,
        "kind": "MENU",
        "name": "新增",
        "code": null,
        "symbol": "20000503",
        "path": null,
        "url": null,
        "leaf": true,
        "level": 3,
        "order": 0
    },
    {
        "id": 7,
        "ouPath": null,
        "createUser": null,
        "createTime": "2012-02-27",
        "modifyUser": null,
        "modifyTime": null,
        "remark": "200005",
        "parentId": 4,
        "kind": "MENU",
        "name": "更新",
        "code": null,
        "symbol": "20000504",
        "path": null,
        "url": null,
        "leaf": true,
        "level": 3,
        "order": 0
    },
    {
        "id": 8,
        "ouPath": null,
        "createUser": null,
        "createTime": "2012-02-27",
        "modifyUser": null,
        "modifyTime": null,
        "remark": "200005",
        "parentId": 4,
        "kind": "MENU",
        "name": "删除",
        "code": null,
        "symbol": "20000505",
        "path": null,
        "url": null,
        "leaf": true,
        "level": 3,
        "order": 0
    },
    {
        "id": 9,
        "ouPath": null,
        "createUser": null,
        "createTime": "2012-02-27",
        "modifyUser": null,
        "modifyTime": null,
        "remark": "200005",
        "parentId": 4,
        "kind": "MENU",
        "name": "导出EXCEL",
        "code": null,
        "symbol": "20000506",
        "path": null,
        "url": null,
        "leaf": true,
        "level": 3,
        "order": 0
    },
    {
        "id": 10,
        "ouPath": null,
        "createUser": null,
        "createTime": "2012-02-27",
        "modifyUser": null,
        "modifyTime": null,
        "remark": "200005",
        "parentId": 4,
        "kind": "MENU",
        "name": "导入EXCEL",
        "code": null,
        "symbol": "20000507",
        "path": null,
        "url": null,
        "leaf": true,
        "level": 3,
        "order": 0
    }
], "pagination": {
    "startRow": 1,
    "endRow": 0,
    "totalCount": 244,
    "pageSize": 10,
    "currentPage": 0,
    "totalPage": 25
}, "sortation": []}